…
    ## New names:
    ## • `` -> `...7`

``` r
df_pop
```

    ## # A tibble: 3,220 × 4
    ##    id             county_and_state         population error
    ##    <chr>          <chr>                         <dbl> <dbl>
    ##  1 0500000US01001 Autauga County, Alabama       55200    NA
    ##  2 0500000US01003 Baldwin County, Alabama      208107    NA
    ##  3 0500000US01005 Barbour County, Alabama       25782    NA
    ##  4 0500000US01007 Bibb County, Alabama          22527    NA
    ##  5 0500000US01009 Blount County, Alabama        57645    NA
    ##  6 0500000US01011 Bullock County, Alabama       10352    NA
    ##  7 0500000US01013 Butler County, Alabama        20025    NA
    ##  8 0500000US01015 Calhoun County, Alabama      115098    NA
    ##  9 0500000US01017 Chambers County, Alabama      33826    NA
    ## 10 0500000US01019 Cherokee County, Alabama      25853    NA
    ## # … with 3,210 more rows
…
    ## [1] "Very good!"

### **q4** Join `df_covid` with `df_q3` by the `fips` column. Use the proper type of join to preserve *only* the rows in `df_covid`.

``` r
## TASK: Join df_covid and df_q3 by fips.
df_q4 <- df_q3 %>% 
  left_join(df_covid, by = "fips")
df_q4
```

    ## # A tibble: 874,941 × 10
    ##    id           count…¹ popul…² error fips  date       county state cases deaths
    ##    <chr>        <chr>     <dbl> <dbl> <chr> <date>     <chr>  <chr> <dbl>  <dbl>
    ##  1 0500000US01… Autaug…   55200    NA 01001 2020-03-24 Autau… Alab…     1      0
    ##  2 0500000US01… Autaug…   55200    NA 01001 2020-03-25 Autau… Alab…     4      0
    ##  3 0500000US01… Autaug…   55200    NA 01001 2020-03-26 Autau… Alab…     6      0
    ##  4 0500000US01… Autaug…   55200    NA 01001 2020-03-27 Autau… Alab…     6      0
    ##  5 0500000US01… Autaug…   55200    NA 01001 2020-03-28 Autau… Alab…     6      0
    ##  6 0500000US01… Autaug…   55200    NA 01001 2020-03-29 Autau… Alab…     6      0
    ##  7 0500000US01… Autaug…   55200    NA 01001 2020-03-30 Autau… Alab…     7      0
    ##  8 0500000US01… Autaug…   55200    NA 01001 2020-03-31 Autau… Alab…     7      0
    ##  9 0500000US01… Autaug…   55200    NA 01001 2020-04-01 Autau… Alab…    10      0
    ## 10 0500000US01… Autaug…   55200    NA 01001 2020-04-02 Autau… Alab…    10      0
    ## # … with 874,931 more rows, and abbreviated variable names ¹​county_and_state,
    ## #   ²​population
…
<!-- ------------------------- -->

### **q5** Use the `population` estimates in `df_data` to normalize `cases` and `deaths` to produce per 100,000 counts \[3\]. Store these values in the columns `cases_per100k` and `deaths_per100k`.

``` r
## TASK: Normalize cases and deaths
df_normalized <- df_data %>% 
  mutate(
    cases_per100k = 100000 * cases / population,
    deaths_per100k = 100000 * deaths / population
  )
df_normalized
```

    ## # A tibble: 874,941 × 9
    ##    date       county  state   fips  cases deaths population cases_per1…¹ death…²
    ##    <date>     <chr>   <chr>   <chr> <dbl>  <dbl>      <dbl>        <dbl>   <dbl>
    ##  1 2020-03-24 Autauga Alabama 01001     1      0      55200         1.81       0
    ##  2 2020-03-25 Autauga Alabama 01001     4      0      55200         7.25       0
    ##  3 2020-03-26 Autauga Alabama 01001     6      0      55200        10.9        0
    ##  4 2020-03-27 Autauga Alabama 01001     6      0      55200        10.9        0
    ##  5 2020-03-28 Autauga Alabama 01001     6      0      55200        10.9        0
    ##  6 2020-03-29 Autauga Alabama 01001     6      0      55200        10.9        0
    ##  7 2020-03-30 Autauga Alabama 01001     7      0      55200        12.7        0
    ##  8 2020-03-31 Autauga Alabama 01001     7      0      55200        12.7        0
    ##  9 2020-04-01 Autauga Alabama 01001    10      0      55200        18.1        0
    ## 10 2020-04-02 Autauga Alabama 01001    10      0      55200        18.1        0
    ## # … with 874,931 more rows, and abbreviated variable names ¹​cases_per100k,
    ## #   ²​deaths_per100k
…
